{
  "value1" 		  :  "bl06/ct/eps-plc-01/CPU_T1",
  "value2"      :  "bl06/ct/eps-plc-01/CPU_T2",
  "value3"      :  "bl06/ct/eps-plc-01/AUX_PT",
  "value4"      :  "bl06/ct/eps-plc-01/AUX_TEMPERATURE_AF",
  "value5"      :  "bl06/ct/eps-plc-01/State"

}
